Coronavirus_exercicio
…
1- Agrupando os dados (Casos de Todos os tipos) por pas

Temos o pas e as 3 possveis situaes: confirmado, recuperado e bito, alm da latitude e longitude do pas.

total_mundo <- coronavirus %>%
  group_by(country,lat,long, type) %>%
  summarise(total_casos = sum(cases))%>%
  arrange(country)

## `summarise()` regrouping output by 'country', 'lat', 'long' (override with `.groups` argument)

total_mundo 

## # A tibble: 792 x 5
## # Groups:   country, lat, long [273]
##    country       lat  long type      total_casos
##    <chr>       <dbl> <dbl> <chr>           <int>
##  1 Afghanistan  33.9 67.7  confirmed       44706
##  2 Afghanistan  33.9 67.7  death            1687
##  3 Afghanistan  33.9 67.7  recovered       35934
##  4 Albania      41.2 20.2  confirmed       32761
##  5 Albania      41.2 20.2  death             699
##  6 Albania      41.2 20.2  recovered       15842
##  7 Algeria      28.0  1.66 confirmed       74862
##  8 Algeria      28.0  1.66 death            2272
##  9 Algeria      28.0  1.66 recovered       48794
## 10 Andorra      42.5  1.52 confirmed        6256
## # ... with 782 more rows

2- O COVID pelo mundo, separado por tipo de caso confirmado, recuperado e bito

Aplicando filtros, teremos 3 subconjuntos (dataframes), cada um referente a um tipo de caso: confirmado, recuperado e bito.

total_mundo_confirmados  <- coronavirus %>%
  filter(type == "confirmed") %>%
  group_by(country, lat, long) %>%
  summarise(total_cases = sum(cases)) 

## `summarise()` regrouping output by 'country', 'lat' (override with `.groups` argument)

total_mundo_confirmados

## # A tibble: 268 x 4
## # Groups:   country, lat [267]
##    country               lat   long total_cases
##    <chr>               <dbl>  <dbl>       <int>
##  1 Afghanistan          33.9  67.7        44706
##  2 Albania              41.2  20.2        32761
##  3 Algeria              28.0   1.66       74862
##  4 Andorra              42.5   1.52        6256
##  5 Angola              -11.2  17.9        14493
##  6 Antigua and Barbuda  17.1 -61.8          139
##  7 Argentina           -38.4 -63.6      1370366
##  8 Armenia              40.1  45.0       126224
##  9 Australia           -42.9 147.           230
## 10 Australia           -37.8 145.         20345
## # ... with 258 more rows
…
Criando a coluna ms para o dataframe

Top_5 = coronavirus %>% 
  filter(country %in% c('US','India','Brazil','France','Russia'))%>%
  mutate(mes = format(date, '%m')) %>%
  group_by(type, country, mes) %>%
  summarise(total_casos = sum(cases))%>%
  arrange(country)

## `summarise()` regrouping output by 'type', 'country' (override with `.groups` argument)

Top_5  

## # A tibble: 165 x 4
## # Groups:   type, country [15]
##    type      country mes   total_casos
##    <chr>     <chr>   <chr>       <int>
##  1 confirmed Brazil  01              0
##  2 confirmed Brazil  02              2
##  3 confirmed Brazil  03           5715
##  4 confirmed Brazil  04          81470
##  5 confirmed Brazil  05         427662
##  6 confirmed Brazil  06         887192
##  7 confirmed Brazil  07        1260444
##  8 confirmed Brazil  08        1245787
##  9 confirmed Brazil  09         902663
## 10 confirmed Brazil  10         724670
## # ... with 155 more rows
…
